…
Join and prepare data

Join DM to VS and keep desired columns

datastep: columns decreased from 24 to 7

# A tibble: 2,768 × 7
   USUBJID    VSTESTCD VISIT   VISITNUM VSSTRESN ARM   VSBLFL
   <chr>      <chr>    <chr>      <dbl>    <dbl> <chr> <chr> 
 1 ABC-01-049 DIABP    DAY 1          1       76 ARM D Y     
 2 ABC-01-049 DIABP    WEEK 2         2       66 ARM D <NA>  
 3 ABC-01-049 DIABP    WEEK 4         4       84 ARM D <NA>  
 4 ABC-01-049 DIABP    WEEK 6         6       68 ARM D <NA>  
 5 ABC-01-049 DIABP    WEEK 8         8       80 ARM D <NA>  
 6 ABC-01-049 DIABP    WEEK 12       12       70 ARM D <NA>  
 7 ABC-01-049 DIABP    WEEK 16       16       70 ARM D <NA>  
 8 ABC-01-049 PULSE    DAY 1          1       84 ARM D Y     
 9 ABC-01-049 PULSE    WEEK 2         2       84 ARM D <NA>  
10 ABC-01-049 PULSE    WEEK 4         4       76 ARM D <NA>  
# ℹ 2,758 more rows
# ℹ Use `print(n = ...)` to see more rows

Sort by variables

proc_sort: input data set 2768 rows and 7 columns
           by: USUBJID VSTESTCD VISITNUM
           keep: USUBJID VSTESTCD VISIT VISITNUM VSSTRESN ARM VSBLFL
           order: a a a
           output data set 2768 rows and 7 columns

# A tibble: 2,768 × 7
   USUBJID    VSTESTCD VISIT   VISITNUM VSSTRESN ARM   VSBLFL
   <chr>      <chr>    <chr>      <dbl>    <dbl> <chr> <chr> 
 1 ABC-01-049 DIABP    DAY 1          1       76 ARM D Y     
 2 ABC-01-049 DIABP    WEEK 2         2       66 ARM D <NA>  
 3 ABC-01-049 DIABP    WEEK 4         4       84 ARM D <NA>  
 4 ABC-01-049 DIABP    WEEK 6         6       68 ARM D <NA>  
 5 ABC-01-049 DIABP    WEEK 8         8       80 ARM D <NA>  
 6 ABC-01-049 DIABP    WEEK 12       12       70 ARM D <NA>  
 7 ABC-01-049 DIABP    WEEK 16       16       70 ARM D <NA>  
 8 ABC-01-049 PULSE    DAY 1          1       84 ARM D Y     
 9 ABC-01-049 PULSE    WEEK 2         2       84 ARM D <NA>  
10 ABC-01-049 PULSE    WEEK 4         4       76 ARM D <NA>  
# ℹ 2,758 more rows
# ℹ Use `print(n = ...)` to see more rows

Differentiate baseline from treated vital signs

datastep: columns increased from 7 to 9

# A tibble: 2,768 × 9
   USUBJID    VSTESTCD VISIT   VISITNUM VSSTRESN ARM   VSBLFL GRP    BSTRESN
   <chr>      <chr>    <chr>      <dbl>    <dbl> <chr> <chr>  <chr>    <dbl>
 1 ABC-01-049 DIABP    DAY 1          1       76 ARM D Y      O_BASE      76
 2 ABC-01-049 DIABP    WEEK 2         2       66 ARM D <NA>   O_TRT       76
 3 ABC-01-049 DIABP    WEEK 4         4       84 ARM D <NA>   O_TRT       76
 4 ABC-01-049 DIABP    WEEK 6         6       68 ARM D <NA>   O_TRT       76
 5 ABC-01-049 DIABP    WEEK 8         8       80 ARM D <NA>   O_TRT       76
 6 ABC-01-049 DIABP    WEEK 12       12       70 ARM D <NA>   O_TRT       76
 7 ABC-01-049 DIABP    WEEK 16       16       70 ARM D <NA>   O_TRT       76
 8 ABC-01-049 PULSE    DAY 1          1       84 ARM D Y      O_BASE      84
 9 ABC-01-049 PULSE    WEEK 2         2       84 ARM D <NA>   O_TRT       84
10 ABC-01-049 PULSE    WEEK 4         4       76 ARM D <NA>   O_TRT       84
# ℹ 2,758 more rows
# ℹ Use `print(n = ...)` to see more rows
…
# A tibble: 1 × 3
  VAR   STAT  A_BASE
  <chr> <chr>  <dbl>
1 GRP   CNT       20

proc_sort: input data set 67 rows and 2 columns
           by: USUBJID GRP
           keep: USUBJID GRP
           order: a
           options: nodupkey
           output data set 67 rows and 2 columns

# A tibble: 67 × 2
   USUBJID    GRP   
   <chr>      <chr> 
 1 ABC-01-049 O_BASE
 2 ABC-01-050 O_BASE
 3 ABC-01-052 O_BASE
 4 ABC-01-053 O_BASE
 5 ABC-01-054 O_BASE
 6 ABC-01-055 O_BASE
 7 ABC-01-113 O_BASE
 8 ABC-01-114 O_BASE
 9 ABC-02-033 O_BASE
10 ABC-02-035 O_BASE
# ℹ 57 more rows
# ℹ Use `print(n = ...)` to see more rows
…
