…
lib_load: library 'sdtm' loaded

select: dropped 20 variables (STUDYID, DOMAIN, SUBJID, RFSTDTC, RFENDTC, <U+0085>)

filter: removed 2 rows (2%), 85 rows remaining

datastep: columns increased from 4 to 5

# A tibble: 85 x 5
   USUBJID    SEX     AGE ARM   AGECAT  
   <chr>      <chr> <dbl> <chr> <chr>   
 1 ABC-01-049 M        39 ARM D 25 to 44
 2 ABC-01-050 M        47 ARM B 45 to 64
 3 ABC-01-051 M        34 ARM A 25 to 44
 4 ABC-01-052 F        45 ARM C 45 to 64
 5 ABC-01-053 F        26 ARM B 25 to 44
 6 ABC-01-054 M        44 ARM D 25 to 44
 7 ABC-01-055 F        47 ARM C 45 to 64
 8 ABC-01-056 M        31 ARM A 25 to 44
 9 ABC-01-113 M        74 ARM D >= 65   
10 ABC-01-114 F        72 ARM B >= 65   
# ... with 75 more rows
…
