…
#### The `dictionary()` Function
Once you have a library defined, you may want to examine 
the column attributes for the datasets in that library.
Examining those column attributes can be accomplished with the `dictionary()` 
function. The `dictionary()`
function returns a tibble of information about the data in the library.

Continuing from the example above, let's look at the dictionary for the 
'sdtm' library created previously.
```{r eval=FALSE, echo=TRUE}
dictionary(sdtm)
# # A tibble: 130 x 10
#    Name  Column  Class     Label Description Format Width Justify  Rows   NAs
#    <chr> <chr>   <chr>     <chr> <chr>       <lgl>  <int> <chr>   <int> <int>
#  1 AE    STUDYID character NA    NA          NA         3 NA        150     0
#  2 AE    DOMAIN  character NA    NA          NA         2 NA        150     0
#  3 AE    USUBJID character NA    NA          NA        10 NA        150     0
#  4 AE    AESEQ   numeric   NA    NA          NA        NA NA        150     0
#  5 AE    AETERM  character NA    NA          NA        72 NA        150     0
#  6 AE    AELLT   logical   NA    NA          NA        NA NA        150   150
#  7 AE    AELLTCD logical   NA    NA          NA        NA NA        150   150
#  8 AE    AEDECOD character NA    NA          NA        43 NA        150     0
#  9 AE    AEPTCD  numeric   NA    NA          NA        NA NA        150     0
# 10 AE    AEHLT   character NA    NA          NA        63 NA        150     0
# # ... with 120 more rows
…
                         if (AGE >= 18 & AGE <= 29)
                           AGEG <- "18 to 29"
                         else if (AGE >= 30 & AGE <= 44)
                           AGEG <- "30 to 44"
                         else if (AGE >= 45 & AGE <= 59)
                           AGEG <- "45 to 59"
                         else 
                           AGEG <- "60+"
                         
                       })
age_groups
# # A tibble: 87 x 3
#    USUBJID      AGE AGEG    
#    <chr>      <dbl> <chr>   
#  1 ABC-01-049    39 30 to 44
#  2 ABC-01-050    47 45 to 59
#  3 ABC-01-051    34 30 to 44
#  4 ABC-01-052    45 45 to 59
#  5 ABC-01-053    26 18 to 29
#  6 ABC-01-054    44 30 to 44
#  7 ABC-01-055    47 45 to 59
#  8 ABC-01-056    31 30 to 44
#  9 ABC-01-113    74 60+     
# 10 ABC-01-114    72 60+     
# # ... with 77 more rows
```
…
